{
  "name":"Basketball",
  "reference":"FIBA",
  "year":2017,
  "periods":[
    {
      "id":"b0",
      "name":"Pre-Game Intermission",
      "optional":false,
      "repeatable":false,
      "duration":1200000
    },
    {
      "id":"p1",
      "name":"Period 1",
      "optional":false,
      "repeatable":false,
      "duration":600000
    },
    {
      "id":"b1",
      "name":"Quarter-Time Intermission 1",
      "optional":false,
      "repeatable":false,
      "duration":120000
    },
    {
      "id":"p2",
      "name":"Period 2",
      "optional":false,
      "repeatable":false,
      "duration":600000
    },
    {
      "id":"b2",
      "name":"Half-Time Intermission",
      "optional":false,
      "repeatable":false,
      "duration":900000
    },
    {
      "id":"p3",
      "name":"Period 3",
      "optional":false,
      "repeatable":false,
      "duration":600000
    },
    {
      "id":"b3",
      "name":"Quarter-Time Intermission 2",
      "optional":false,
      "repeatable":false,
      "duration":120000
    },
    {
      "id":"p4",
      "name":"Final Period",
      "optional":false,
      "repeatable":false,
      "duration":600000
    },
    {
      "id":"e1",
      "name":"Extra Time",
      "optional":true,
      "repeatable":true,
      "duration":300000
    }
  ],
  "timeouts":[
    {
      "id":"t1",
      "name":"First Half Time-Out",
      "location":["p1","p2"],
      "tol":"2",
      "tol2min":false,
      "duration":60000
    },
    {
      "id":"t2",
      "name":"Second Half Time-Out",
      "location":["p3","p4"],
      "tol":"3",
      "tol2min":true,
      "duration":60000
    }
  ]
}
