{
  "name":"Floorball",
  "reference":"IFF",
  "year":2018,
  "periods":[
    {
      "id":"p1",
      "name":"Period 1",
      "optional":false,
      "repeatable":false,
      "duration":1200000
    },
    {
      "id":"b1",
      "name":"Intermission 1",
      "optional":false,
      "repeatable":false,
      "duration":600000
    },
    {
      "id":"p2",
      "name":"Period 2",
      "optional":false,
      "repeatable":false,
      "duration":1200000
    },
    {
      "id":"b2",
      "name":"Intermission 2",
      "optional":false,
      "repeatable":false,
      "duration":600000
    },
    {
      "id":"p3",
      "name":"Final Period",
      "optional":false,
      "repeatable":false,
      "duration":1200000
    },
    {
      "id":"b3",
      "name":"Pre-Extra Time Intermission",
      "optional":true,
      "repeatable":false,
      "duration":120000
    },
    {
      "id":"e1",
      "name":"Extra Time",
      "optional":true,
      "repeatable":false,
      "duration":600000
    }
  ],
  "timeouts":[
    {
      "id":"t1",
      "name":"Time-Out",
      "location":["p1","p2","p3","e"],
      "tol":"1",
      "tol2min":false,
      "duration":30000
    }
  ]
}
